Building a Spotify Recommendation Model With R - A Hugo website
…
Which Genres Have the Most Playlists?

Next, we can view which genre’s have the highest number of playlists in the data file using ggplot2().

genre_frequency_tbl <- playlist_tbl %>%
    count(genre) %>%
    arrange(desc(n)) %>%
    rowid_to_column(var = "rank")

genre_frequency_tbl
## # A tibble: 27 x 3
##     rank genre                n
##    <int> <chr>            <int>
##  1     1 Chill            10476
##  2     2 Mood              7919
##  3     3 Dance_Electronic  7747
##  4     4 Country           6930
##  5     5 Rock              6704
##  6     6 Focus             6122
##  7     7 Desi              5561
##  8     8 Classical         5324
##  9     9 Decades           5106
## 10    10 Indie             4901
## # ... with 17 more rows
…
